%YAML 1.1
%TAG !u! tag:unity3d.com,2011:
--- !u!74 &7400000
AnimationClip:
  m_ObjectHideFlags: 0
  m_PrefabParentObject: {fileID: 0}
  m_PrefabInternal: {fileID: 0}
  m_Name: point_2
  serializedVersion: 6
  m_Legacy: 1
  m_Compressed: 0
  m_UseHighQualityCurve: 1
  m_RotationCurves:
  - curve:
      serializedVersion: 2
      m_Curve:
      - time: 0
        value: {x: -0, y: -0, z: -0, w: -1}
        inSlope: {x: 0, y: -1.0471443, z: 0, w: 0.009137391}
        outSlope: {x: 0, y: -1.0471443, z: 0, w: 0.009137391}
        tangentMode: -559038737
      - time: 0.55000013
        value: {x: -0, y: -0.54463917, z: -0, w: -0.8386705}
        inSlope: {x: 0, y: -0.8782097, z: 0, w: 0.57031685}
        outSlope: {x: 0, y: -0.8782097, z: 0, w: 0.57031685}
        tangentMode: -559038737
      - time: 1.2999995
        value: {x: -0, y: -0.9781475, z: -0, w: -0.20791224}
        inSlope: {x: 0, y: -0.21771511, z: 0, w: 1.0242641}
        outSlope: {x: 0, y: -0.21771511, z: 0, w: 1.0242641}
        tangentMode: -559038737
      - time: 2.0499988
        value: {x: -0, y: -0.8386713, z: -0, w: 0.54463786}
        inSlope: {x: 0, y: 0.57031506, z: 0, w: 0.8782115}
        outSlope: {x: 0, y: 0.57031506, z: 0, w: 0.8782115}
        tangentMode: -559038737
      - time: 2.799998
        value: {x: -0, y: -0.20791371, z: -0, w: 0.97814715}
        inSlope: {x: 0, y: 1.0242637, z: 0, w: 0.21771511}
        outSlope: {x: 0, y: 1.0242637, z: 0, w: 0.21771511}
        tangentMode: -559038737
      - time: 3
        value: {x: -0, y: 0.00000008742278, z: -0, w: 1}
        inSlope: {x: 0, y: 1.0471476, z: 0, w: 0.0091398}
        outSlope: {x: 0, y: 1.0471476, z: 0, w: 0.0091398}
        tangentMode: -559038737
      m_PreInfinity: 2
      m_PostInfinity: 2
      m_RotationOrder: 4
    path: 
  m_CompressedRotationCurves: []
  m_EulerCurves: []
  m_PositionCurves: []
  m_ScaleCurves:
  - curve:
      serializedVersion: 2
      m_Curve:
      - time: 0
        value: {x: 1, y: 1, z: 1}
        inSlope: {x: 0.4000001, y: 0, z: 0}
        outSlope: {x: 0.4000001, y: 0, z: 0}
        tangentMode: 272950672
      m_PreInfinity: 2
      m_PostInfinity: 2
      m_RotationOrder: 4
    path: 
  m_FloatCurves: []
  m_PPtrCurves: []
  m_SampleRate: 60
  m_WrapMode: 2
  m_Bounds:
    m_Center: {x: 0, y: 0, z: 0}
    m_Extent: {x: 0, y: 0, z: 0}
  m_ClipBindingConstant:
    genericBindings: []
    pptrCurveMapping: []
  m_AnimationClipSettings:
    serializedVersion: 2
    m_AdditiveReferencePoseClip: {fileID: 0}
    m_AdditiveReferencePoseTime: 0
    m_StartTime: 0
    m_StopTime: 1
    m_OrientationOffsetY: 0
    m_Level: 0
    m_CycleOffset: 0
    m_HasAdditiveReferencePose: 0
    m_LoopTime: 0
    m_LoopBlend: 0
    m_LoopBlendOrientation: 0
    m_LoopBlendPositionY: 0
    m_LoopBlendPositionXZ: 0
    m_KeepOriginalOrientation: 0
    m_KeepOriginalPositionY: 1
    m_KeepOriginalPositionXZ: 0
    m_HeightFromFeet: 0
    m_Mirror: 0
  m_EditorCurves:
  - curve:
      serializedVersion: 2
      m_Curve:
      - time: 0
        value: -0
        inSlope: 0
        outSlope: 0
        tangentMode: 0
      - time: 0.55000013
        value: -0
        inSlope: 0
        outSlope: 0
        tangentMode: 0
      - time: 1.2999995
        value: -0
        inSlope: 0
        outSlope: 0
        tangentMode: 0
      - time: 2.0499988
        value: -0
        inSlope: 0
        outSlope: 0
        tangentMode: 0
      - time: 2.799998
        value: -0
        inSlope: 0
        outSlope: 0
        tangentMode: 0
      - time: 3
        value: -0
        inSlope: 0
        outSlope: 0
        tangentMode: 0
      m_PreInfinity: 2
      m_PostInfinity: 2
      m_RotationOrder: 4
    attribute: m_LocalRotation.x
    path: 
    classID: 4
    script: {fileID: 0}
  - curve:
      serializedVersion: 2
      m_Curve:
      - time: 0
        value: -0
        inSlope: -1.0471443
        outSlope: -1.0471443
        tangentMode: 0
      - time: 0.55000013
        value: -0.54463917
        inSlope: -0.8782097
        outSlope: -0.8782097
        tangentMode: 0
      - time: 1.2999995
        value: -0.9781475
        inSlope: -0.21771511
        outSlope: -0.21771511
        tangentMode: 0
      - time: 2.0499988
        value: -0.8386713
        inSlope: 0.57031506
        outSlope: 0.57031506
        tangentMode: 0
      - time: 2.799998
        value: -0.20791371
        inSlope: 1.0242637
        outSlope: 1.0242637
        tangentMode: 0
      - time: 3
        value: 0.00000008742278
        inSlope: 1.0471476
        outSlope: 1.0471476
        tangentMode: 0
      m_PreInfinity: 2
      m_PostInfinity: 2
      m_RotationOrder: 4
    attribute: m_LocalRotation.y
    path: 
    classID: 4
    script: {fileID: 0}
  - curve:
      serializedVersion: 2
      m_Curve:
      - time: 0
        value: -0
        inSlope: 0
        outSlope: 0
        tangentMode: 0
      - time: 0.55000013
        value: -0
        inSlope: 0
        outSlope: 0
        tangentMode: 0
      - time: 1.2999995
        value: -0
        inSlope: 0
        outSlope: 0
        tangentMode: 0
      - time: 2.0499988
        value: -0
        inSlope: 0
        outSlope: 0
        tangentMode: 0
      - time: 2.799998
        value: -0
        inSlope: 0
        outSlope: 0
        tangentMode: 0
      - time: 3
        value: -0
        inSlope: 0
        outSlope: 0
        tangentMode: 0
      m_PreInfinity: 2
      m_PostInfinity: 2
      m_RotationOrder: 4
    attribute: m_LocalRotation.z
    path: 
    classID: 4
    script: {fileID: 0}
  - curve:
      serializedVersion: 2
      m_Curve:
      - time: 0
        value: -1
        inSlope: 0.009137391
        outSlope: 0.009137391
        tangentMode: 0
      - time: 0.55000013
        value: -0.8386705
        inSlope: 0.57031685
        outSlope: 0.57031685
        tangentMode: 0
      - time: 1.2999995
        value: -0.20791224
        inSlope: 1.0242641
        outSlope: 1.0242641
        tangentMode: 0
      - time: 2.0499988
        value: 0.54463786
        inSlope: 0.8782115
        outSlope: 0.8782115
        tangentMode: 0
      - time: 2.799998
        value: 0.97814715
        inSlope: 0.21771511
        outSlope: 0.21771511
        tangentMode: 0
      - time: 3
        value: 1
        inSlope: 0.0091398
        outSlope: 0.0091398
        tangentMode: 0
      m_PreInfinity: 2
      m_PostInfinity: 2
      m_RotationOrder: 4
    attribute: m_LocalRotation.w
    path: 
    classID: 4
    script: {fileID: 0}
  - curve:
      serializedVersion: 2
      m_Curve:
      - time: 0
        value: 1
        inSlope: 0.4000001
        outSlope: 0.4000001
        tangentMode: 10
      m_PreInfinity: 2
      m_PostInfinity: 2
      m_RotationOrder: 4
    attribute: m_LocalScale.x
    path: 
    classID: 4
    script: {fileID: 0}
  - curve:
      serializedVersion: 2
      m_Curve:
      - time: 0
        value: 1
        inSlope: 0.4000001
        outSlope: 0.4000001
        tangentMode: 10
      m_PreInfinity: 2
      m_PostInfinity: 2
      m_RotationOrder: 4
    attribute: m_LocalScale.y
    path: 
    classID: 4
    script: {fileID: 0}
  - curve:
      serializedVersion: 2
      m_Curve:
      - time: 0
        value: 1
        inSlope: 0.4000001
        outSlope: 0.4000001
        tangentMode: 10
      m_PreInfinity: 2
      m_PostInfinity: 2
      m_RotationOrder: 4
    attribute: m_LocalScale.z
    path: 
    classID: 4
    script: {fileID: 0}
  m_EulerEditorCurves:
  - curve:
      serializedVersion: 2
      m_Curve:
      - time: 0
        value: 0
        inSlope: 1e-45
        outSlope: 3.3290327e-35
        tangentMode: 10
      m_PreInfinity: 2
      m_PostInfinity: 2
      m_RotationOrder: 4
    attribute: localEulerAnglesBaked.x
    path: 
    classID: 4
    script: {fileID: 0}
  - curve:
      serializedVersion: 2
      m_Curve:
      - time: 0
        value: 0
        inSlope: 120
        outSlope: 120
        tangentMode: 10
      - time: 3
        value: 360
        inSlope: 120
        outSlope: 120
        tangentMode: 10
      m_PreInfinity: 2
      m_PostInfinity: 2
      m_RotationOrder: 4
    attribute: localEulerAnglesBaked.y
    path: 
    classID: 4
    script: {fileID: 0}
  - curve:
      serializedVersion: 2
      m_Curve:
      - time: 0
        value: 0
        inSlope: 2.282469e-39
        outSlope: 1.3847099e-32
        tangentMode: 10
      m_PreInfinity: 2
      m_PostInfinity: 2
      m_RotationOrder: 4
    attribute: localEulerAnglesBaked.z
    path: 
    classID: 4
    script: {fileID: 0}
  m_HasGenericRootTransform: 0
  m_HasMotionFloatCurves: 0
  m_GenerateMotionCurves: 0
  m_Events: []
